DDR2_Cursor_backup/.Xil/Vivado-25088-QianPC/hw_ila_data_1/zip_work/waveform.vcd
$date
        2026-Apr-26 18:19:00
$end
$version
        Vivado v2024.2 (64-bit)
$end
$timescale
        1ps
$end
$scope module dut $end
$var reg 32 " inst [31:0] $end
$var reg 32 B pc [31:0] $end
$var reg 1 b ext_mem_access_1 $end
$var reg 1 c SI_Reset_N $end
$var reg 1 d lock $end
$var reg 23 e ext_mem_a_1 [22:0] $end
$var reg 1 | ext_mem_access $end
$var reg 1 } ext_mem_write $end
$var reg 1 ~ ext_mem_ready $end
$var reg 1 !" ext_mem_a_2 $end
$var reg 16 "" IO_Switch [15:0] $end
$var reg 16 2" IO_LED [15:0] $end
$var reg 1 B" ms_stall_req $end
$var reg 1 C" sel_i $end
$var reg 32 D" ext_mem_a [31:0] $end
$var reg 32 d" ext_mem_st_data [31:0] $end
$var reg 1 &# mldst $end
$var reg 1 '# ila_probe13 $end
$var reg 32 (# mal [31:0] $end
$var reg 32 H# ext_mem_dout [31:0] $end
$var reg 1 h# ms_mem_ready $end
$var reg 1 i# rw $end
$var reg 1 j# memex_rstrobe $end
$var reg 1 k# memex_wstrobe $end
$var reg 1 l# ddr2_complete $end
$var reg 1 m# memex_ready $end
$var reg 1 n# busy_ddr $end
$var reg 1 o# pending_ddr $end
$var reg 1 p# strobe_redge $end
$var reg 3 q# state [2:0] $end
$var reg 1 t# mem_en $end
$var reg 1 u# mem_wdf_rdy $end
$var reg 1 v# mem_rdy $end
$var reg 1 w# ui_clk_sync_rst $end
$var reg 1 x# ms_if_ready $end
$var reg 1 y# init_calib_complete $end
$var reg 1 z# transaction_complete $end
$var reg 1 {# complete $end
$var reg 1 |# strobe $end
$var reg 1 }# _TRIGGER $end
$var reg 1 ~# _WINDOW $end
$var reg 1 !$ _GAP $end
$upscope $end
$enddefinitions $end
#0
$dumpvars
b11000000011101001000001110011 "
b10110100 B
1b
1c
1d
b10110100 e
1|
0}
0~
0!"
b11 ""
b0 2"
1B"
1C"
b10110100 D"
b0 d"
0&#
0'#
b10000000000000000000000000000000 (#
b10011 H#
0h#
0i#
0j#
0k#
0l#
0m#
0n#
0o#
0p#
b0 q#
0t#
1u#
1v#
1w#
0x#
1y#
0z#
0{#
1|#
0}#
1~#
0!$
$end
#2
1~
0B"
1x#
#3
b10011 "
b10111000 B
b10111000 e
0~
1B"
b10111000 D"
b10000000000000000000000000000100 (#
0x#
#8
1~
0B"
1x#
#9
b10111100 B
b10111100 e
0~
1B"
b10111100 D"
b0 (#
0x#
#14
1~
0B"
1x#
#15
b11000000 B
b11000000 e
0~
1B"
b11000000 D"
0x#
#16
0b
b0 e
0|
1!"
0C"
b10000000000000000000000000000000 D"
b1111111111111111 H#
0|#
#17
1b
b100000000000000 e
1|
0!"
b100000000000000 D"
b1010000000001 H#
1p#
1|#
#18
0p#
#23
1~
#24
0b
0|
0~
b0 H#
0|#
#25
1b
b101000000000000 e
1|
b101000000000000 D"
b1011 H#
1p#
1|#
#26
0p#
#31
1~
#32
0b
0|
0~
b0 H#
0|#
#33
b0 e
1!"
b10000000000000000000000000000000 D"
b1111111111111111 H#
#35
1b
b11000000 e
1|
0!"
1C"
b11000000 D"
b10011 H#
1p#
1|#
#36
0p#
#41
1~
0B"
1x#
#42
b11000100 B
b11000100 e
0~
1B"
b11000100 D"
b1000000001111 H#
0x#
#47
1~
0B"
1x#
#48
b1000000001111 "
b11001000 B
b11001000 e
0~
1B"
b11001000 D"
b10000100110111 H#
0x#
#53
1~
0B"
1x#
#54
b10000100110111 "
b11001100 B
b11001100 e
0~
1B"
b11001100 D"
b1110011010100000001000001101111 H#
0x#
#59
1~
0B"
1x#
#60
b1110011010100000001000001101111 "
b11010000 B
b11010000 e
0~
1B"
b11010000 D"
b10011 H#
0x#
#65
1~
0B"
1x#
#66
b10011 "
b10000000000000 B
0b
b0 e
0|
0~
1!"
1B"
0C"
b10000000000000000000000000000000 D"
b10000000000000 (#
b1111111111111111 H#
0x#
0|#
#67
1b
b100000000000000 e
1|
0!"
b100000000000000 D"
b1010000000001 H#
1p#
1|#
#68
0p#
#73
1~
#74
0b
0|
0~
b0 H#
0|#
#75
1b
b101000000001000 e
1|
b101000000001000 D"
b1000000000000000100000001011 H#
1p#
1|#
#76
0p#
#81
1~
#82
0b
0|
0~
b0 H#
0|#
#83
b0 e
1!"
b10000000000000000000000000000000 D"
b1111111111111111 H#
#85
1b
b10000000000000 e
1|
0!"
1C"
b100000000000000010000000000000 D"
b10011 H#
1p#
1|#
#86
0p#
#91
1~
0B"
1x#
#92
b10000000000100 B
b10000000000100 e
0~
1B"
b100000000000000010000000000100 D"
b11010000 (#
0x#
#97
1~
0B"
1x#
#98
b10000000001000 B
b10000000001000 e
0~
1B"
b100000000000000010000000001000 D"
b0 (#
b100001010110111 H#
0x#
#103
1~
0B"
1x#
#104
b100001010110111 "
b10000000001100 B
b10000000001100 e
0~
1B"
b100000000000000010000000001100 D"
b11001010111111101100001100110111 H#
0x#
#109
1~
0B"
1x#
#110
b11001010111111101100001100110111 "
b10000000010000 B
b10000000010000 e
0~
1B"
b100000000000000010000000010000 D"
b10101011111000110000001100010011 H#
0x#
#115
1~
0B"
1x#
#116
b10101011111000110000001100010011 "
b10000000010100 B
b10000000010100 e
0~
1B"
b100000000000000010000000010100 D"
b100000000000000 (#
b11000101010000000100011 H#
0x#
#121
1~
0B"
1x#
#122
b11000101010000000100011 "
b10000000011000 B
b10000000011000 e
0~
1B"
b100000000000000010000000011000 D"
b11001010111111101100000000000000 (#
b10011 H#
0x#
#127
1~
0B"
1x#
#128
b10011 "
b10000000011100 B
b10000000011100 e
0~
1B"
b100000000000000010000000011100 D"
b1000000000000000110000001011 d"
b11001010111111101011101010111110 (#
b101010001110000011 H#
0x#
1}#
#133
1~
0B"
1x#
#134
b101010001110000011 "
b10000000100000 B
b10000000100000 e
0~
1B"
b100000000000000010000000100000 D"
b11001010111111101011101010111110 d"
1'#
b100000000000000 (#
b10111111100000000000111000110111 H#
0x#
#135
b100000000000000 e
0C"
b100000000000000 D"
b1010000000001 H#
#139
1~
#140
0b
0|
0~
b0 H#
0|#
#141
1b
b101000000010000 e
1|
b101000000010000 D"
b100000000000000000000000000111 H#
1p#
1|#
#142
0p#
#147
1~
#148
0b
0|
0~
b0 H#
0|#
#149
1b
b10000000100000 e
1|
1C"
b100000000000000010000000100000 D"
b10111111100000000000111000110111 H#
1p#
1|#
#150
0p#
#155
1~
1x#
#156
b0 e
1}
0~
1!"
0C"
b10000000000000000000000000000000 D"
b1111111111111111 H#
1i#
#157
1o#
#743
b0 H#
0u#
0v#
0y#
